…
- Sigungu dataset of three census years (2010, 2015, 2020)
  - The curated dataset is a **long** table (i.e., one row per
    district-year-variable)

### `anycensus()`

- The function `anycensus()` allows you to query census data for
  specific district or province codes and types of data (population,
  tax, mortality, economy, housing) for three census years (2010, 2015,
  2020).

``` r
# loading Seoul population data
tidycensuskr::anycensus(codes = "Seoul", type = "population")
#> # A tibble: 25 × 17
#>     year adm1  adm1_code adm2          adm2_code type     all households_total…¹
#>    <dbl> <chr>     <dbl> <chr>             <dbl> <chr>                     <dbl>
#>  1  2020 Seoul        11 Dobong-gu         11100 populat…                 312878
#>  2  2020 Seoul        11 Dongdaemun-gu     11060 populat…                 332796
#>  3  2020 Seoul        11 Dongjak-gu        11200 populat…                 378749
#>  4  2020 Seoul        11 Eunpyeong-gu      11120 populat…                 458777
#>  5  2020 Seoul        11 Gangbuk-gu        11090 populat…                 295304
#>  6  2020 Seoul        11 Gangdong-gu       11250 populat…                 440022
#>  7  2020 Seoul        11 Gangnam-gu        11230 populat…                 509899
#>  8  2020 Seoul        11 Gangseo-gu        11160 populat…                 564114
#>  9  2020 Seoul        11 Geumcheon-gu      11180 populat…                 225594
#> 10  2020 Seoul        11 Guro-gu           11170 populat…                 394733
#> # ℹ 15 more rows
#> # ℹ abbreviated name: ¹​`all households_total_prs`
#> # ℹ 10 more variables: `all households_male_prs` <dbl>,
#> #   `all households_female_prs` <dbl>, fertility_total_brt <dbl>,
#> #   `fertility_15-19 (simulated)_bp1` <dbl>, `fertility_20-24_bp1` <dbl>,
#> #   `fertility_25-29_bp1` <dbl>, `fertility_30-34_bp1` <dbl>,
#> #   `fertility_35-39_bp1` <dbl>, `fertility_40-44_bp1` <dbl>, …
```
…
